,0
Sébastien Tixeuil,0.6531914893617021
Michèle Sebag,0.4328467153284671
Johanne Cohen,0.2627906976744186
Albert Cohen,0.5448275862068965
Wendy E. Mackay,0.2608695652173913
Philippe Caillou,0.6209302325581395
Alain Denise,0.3138888888888889
Jean-Daniel Fekete,0.5345911949685535
Emmanuel Pietriga,0.3079365079365079
Yann Ponty,0.6515151515151515
Marc Schoenauer,0.5251798561151079
Franck Cappello,0.6195121951219512
Caroline Appert,0.3695652173913043
Michel Beaudouin-Lafon,0.3518518518518518
Wendy Mackay,0.2638297872340425
Anne Auger,0.520253164556962
Evelyne Lutton,0.5135135135135135
Pierre Dragicevic,0.3111111111111111
Ioana Manolescu,0.6548780487804878
Nikolaus Hansen,0.6987654320987654
Nicolas Bredeche,0.6470588235294118
Olivier Teytaud,0.5924528301886792
François Goasdoué,0.5660377358490566
Nathalie Pernelle,0.6235294117647059
Fatiha Saïs,0.6536585365853659
Sarah Cohen-Boulakia,0.6878787878787879
Claude Marché,0.5127659574468085
Chantal Reynaud,0.5866666666666667
Olivier Chapuis,0.3615384615384615
Steven Martin,0.3923076923076923
Fatiha Zaidi,0.53125
Balázs Kégl,0.3552631578947368
Paola Tubaro,0.7512820512820513
Raymond Ros,0.5852941176470589
Cyril Furtlehner,0.6641025641025641
Anastasia Bezerianos,0.3746268656716418
Sylvie Boldo,0.5285714285714286
Guillaume Melquiond,0.4303030303030303
Marc Baboulin,0.6333333333333333
Dimo Brockhoff,0.6051282051282051
Nathann Cohen,0.4512195121951219
Petra Isenberg,0.5317757009345795
Tobias Isenberg,0.6264957264957265
Loïc Paulevé,0.780952380952381
Céline Gicquel,0.7684210526315789
Isabelle Guyon,0.7067415730337079
Guillaume Charpiat,0.5806451612903226
Lonni Besançon,0.4484848484848485
